/Tw /c /n /v /x d:\lib\c0wl+
\obj\wk+
\obj\wake+
\obj\wk_fun+
\obj\wk_fun2+
\obj\wk_gra+
\obj\wk_gra2+
\obj\wk_log+
\obj\wk_mat+
\obj\wk_mat2+
\obj\wk_pic+
\obj\wk_seq+
\obj\wk_seq2
wk,,cwinl mathl cl import file_acs,wk
